^C:\USERS\SHALI\DESKTOP\THE DEAL\CLIENTAPP\X64\DEBUG\BUFFER.OBJ|C:\USERS\SHALI\DESKTOP\THE DEAL\CLIENTAPP\X64\DEBUG\CLIENT.OBJ|C:\USERS\SHALI\DESKTOP\THE DEAL\CLIENTAPP\X64\DEBUG\LOBBYDETAILS.OBJ
C:\USERS\SHALI\DESKTOP\THE DEAL\X64\DEBUG\CLIENT.ILK
C:\USERS\SHALI\DESKTOP\THE DEAL\X64\DEBUG\CLIENT.EXE
C:\USERS\SHALI\DESKTOP\THE DEAL\X64\DEBUG\CLIENT.PDB
