^C:\USERS\SHALI\DESKTOP\THE DEAL\AUTHSERVER\DEBUG\AUTHSERVER.OBJ|C:\USERS\SHALI\DESKTOP\THE DEAL\AUTHSERVER\DEBUG\BUFFER.OBJ|C:\USERS\SHALI\DESKTOP\THE DEAL\AUTHSERVER\DEBUG\DATABASEHELPER.OBJ|C:\USERS\SHALI\DESKTOP\THE DEAL\AUTHSERVER\DEBUG\SHA256.OBJ
C:\USERS\SHALI\DESKTOP\THE DEAL\DEBUG\AUTH.ILK
C:\USERS\SHALI\DESKTOP\THE DEAL\DEBUG\AUTH.EXE
C:\USERS\SHALI\DESKTOP\THE DEAL\DEBUG\AUTH.PDB
